{
  "data": [
    {"id":"019e97ba-6b97-70a9-bf24-43be9faeb586","firstName":"Test","lastName":"Parent","email":"test1@happaning.com","avatarUrl":null,"joinedDate":"2026-06-05T12:20:37.000Z","lastActivity":null,"role":"parent","status":"active"},
    {"id":"019e975e-515e-7d68-9160-4b0c2cad14b6","firstName":"Homa","lastName":"hhh","email":"jogabonitolekki@gmail.com","avatarUrl":null,"joinedDate":"2026-06-05T10:40:01.000Z","lastActivity":null,"role":"instructor","status":"active"},
    {"id":"019e74ca-54f8-7f67-9680-218731c2a864","firstName":"T","lastName":"Roberts","email":"troberts@westhillcrest.com","avatarUrl":null,"joinedDate":"2026-05-29T17:31:18.000Z","lastActivity":null,"role":"dojo_owner","status":"active"},
    {"id":"019e4fb6-b114-7de2-9997-253c69f1e77a","firstName":"Mary","lastName":"Alan","email":"omotoyosiodunayo07@gmail.com","avatarUrl":null,"joinedDate":"2026-05-22T12:43:53.000Z","lastActivity":null,"role":"child","status":"active"},
    {"id":"019e4faa-cce2-7cdd-bb78-58eeb529adcf","firstName":"Allan","lastName":"Tola","email":"thewebalpha003@gmail.com","avatarUrl":"https://res.cloudinary.com/djxc7lp6i/image/upload/bpujdyco0gjahj9hvdas?_a=BAMAOGUs0","joinedDate":"2026-05-22T12:30:54.000Z","lastActivity":null,"role":"instructor","status":"active"},
    {"id":"019e4fa4-224e-772f-a77e-36b35d79a999","firstName":"Admin","lastName":"Awwal","email":"awwal.adeyemoola@gmail.com","avatarUrl":null,"joinedDate":"2026-05-22T12:23:37.000Z","lastActivity":null,"role":"dojo_owner","status":"active"},
    {"id":"019e4a76-7f67-7f88-b3b7-0485408a143c","firstName":"jam","lastName":"Lin","email":"admin@manor-realtors.com","avatarUrl":null,"joinedDate":"2026-05-21T12:15:40.000Z","lastActivity":null,"role":"dojo_owner","status":"active"},
    {"id":"019e458c-5d5a-7388-9fd2-457524a7741a","firstName":"Tola","lastName":"Tola","email":"abidemisherry5@gmail.com","avatarUrl":"https://res.cloudinary.com/djxc7lp6i/image/upload/xw2g9zykbqcyag6cbfpa?_a=BAMAOGUs0","joinedDate":"2026-05-20T13:21:27.000Z","lastActivity":null,"role":"instructor","status":"active"},
    {"id":"019e4576-8652-741f-86bf-e6b6f42f013f","firstName":"Juni","lastName":"Alan","email":"thewebalpha000@gmail.com","avatarUrl":null,"joinedDate":"2026-05-20T12:57:36.000Z","lastActivity":null,"role":"child","status":"disabled"},
    {"id":"019e4575-ec0c-7ce5-8bf4-a2c069c1aadb","firstName":"July","lastName":"Alan","email":"thewebapha001@gmail.com","avatarUrl":"https://res.cloudinary.com/djxc7lp6i/image/upload/vanij9nz5ki21npi8xzl?_a=BAMAOGUs0","joinedDate":"2026-05-20T12:56:56.000Z","lastActivity":null,"role":"child","status":"disabled"},
    {"id":"019e4574-c315-7134-b18e-5c1b6b6136e2","firstName":"Alan","lastName":"Mary","email":"sismail477@stu.ui.edu.ng","avatarUrl":null,"joinedDate":"2026-05-20T12:55:41.000Z","lastActivity":null,"role":"parent","status":"active"},
    {"id":"019e455c-8cba-78eb-8cce-68a98c8fdd19","firstName":"Tola","lastName":"Sherifat","email":"tolasherifat70@gmail.com","avatarUrl":null,"joinedDate":"2026-05-20T12:29:14.000Z","lastActivity":null,"role":"instructor","status":"active"},
    {"id":"019e454e-43f5-7ef8-842c-1bbe25182942","firstName":"Ismail","lastName":"Omotola","email":"sherifatomotola2018@gmail.co","avatarUrl":null,"joinedDate":"2026-05-20T12:13:38.000Z","lastActivity":null,"role":"dojo_owner","status":"active"},
    {"id":"019e3b69-f4da-7d98-872c-6d95c646936e","firstName":"Hope","lastName":"Ali","email":"chituruallen@gmail.com","avatarUrl":null,"joinedDate":"2026-05-18T14:07:40.000Z","lastActivity":null,"role":"parent","status":"active"},
    {"id":"019e3b68-32dd-7bac-8110-dd2cec938865","firstName":"Jason","lastName":"Karibi","email":"gracehomakelly@gmail.com","avatarUrl":null,"joinedDate":"2026-05-18T14:05:45.000Z","lastActivity":null,"role":"dojo_owner","status":"active"},
    {"id":"019e3b2a-0fbc-7c5e-97c3-423b00d9a4dc","firstName":"Tobi","lastName":"Walker","email":"tomi@theraptly.com","avatarUrl":null,"joinedDate":"2026-05-18T12:57:53.000Z","lastActivity":null,"role":"child","status":"active"},
    {"id":"019e3b28-1156-7627-b59b-4fb8a501c1d9","firstName":"Tomi","lastName":"Walker","email":"vauntedgiant@zohomail.com","avatarUrl":null,"joinedDate":"2026-05-18T12:55:42.000Z","lastActivity":null,"role":"parent","status":"active"},
    {"id":"019e3aff-7b15-7832-bcd0-59d8cd3fb5d3","firstName":"Adeyemo","lastName":"Awwal","email":"miday1601@gmail.com","avatarUrl":"https://res.cloudinary.com/djxc7lp6i/image/upload/qknx9gpqk...","joinedDate":"2026-05-18T12:11:22.000Z","lastActivity":null,"role":"dojo_owner","status":"active"},
    {"id":"019e35ac-e5fe-7542-ad09-947cadf09eda","firstName":"Allen","lastName":"Ibom","email":"akomaningabraham5@gmail.com","avatarUrl":null,"joinedDate":"2026-05-17T11:23:04.000Z","lastActivity":null,"role":"child","status":"active"},
    {"id":"019e35ab-f899-78bc-8bc4-eb93ec403dc8","firstName":"Favi","lastName":"Ibom","email":"Favi2@example.com","avatarUrl":null,"joinedDate":"2026-05-17T11:22:03.000Z","lastActivity":null,"role":"parent","status":"active"}
  ],
  "meta": {"page":1, "limit":20, "totalCount":42, "totalPages":3}
}
